{
    "app_categories": {
        "Development": "ಅಭಿವೃದ್ಧಿ",
        "Games": "ಆಟಗಳು",
        "Graphics": "ಗ್ರಾಫಿಕ್ಸ್",
        "Internet": "ಅಂತರ್ಜಾಲ",
        "Money": "ಹಣ",
        "Multimedia": "ಬಹುಮಾಧ್ಯಮ",
        "Navigation": "ಸಂಚರಣೆ",
        "Phone & SMS": "ಫೋನ್ ಮತ್ತು SMS",
        "Reading": "ಓದು",
        "Science & Education": "ವಿಜ್ಞಾನ ಮತ್ತು ಶಿಕ್ಷಣ",
        "Security": "ಸುರಕ್ಷತೆ",
        "Sports & Health": "ಕ್ರೀಡೆ & ಆರೋಗ್ಯ",
        "System": "ಸಿಸ್ಟಮ್",
        "Time": "ಸಮಯ",
        "Writing": "ಬರವಣಿಗೆ"
    }
}
